module gitlab.com/golang-commonmark/mdtool

go 1.17

require (
	github.com/pkg/browser v0.0.0-20210911075715-681adbf594b8
	gitlab.com/golang-commonmark/markdown v0.0.0-20211110145824-bf3e522c626a
)

require (
	gitlab.com/golang-commonmark/html v0.0.0-20191124015941-a22733972181 // indirect
	gitlab.com/golang-commonmark/linkify v0.0.0-20191026162114-a0c2df6c8f82 // indirect
	gitlab.com/golang-commonmark/mdurl v0.0.0-20191124015652-932350d1cb84 // indirect
	gitlab.com/golang-commonmark/puny v0.0.0-20191124015043-9f83538fa04f // indirect
	golang.org/x/sys v0.0.0-20210616045830-e2b7044e8c71 // indirect
	golang.org/x/text v0.3.2 // indirect
)
